(module easyeda2kicad:SOT-223-4_L6.5-W3.5-P2.30-LS7.0-BR (layer F.Cu) (tedit 5DC5F6A4)
	(fp_text reference REF** (at 0 -6.3) (layer F.SilkS)
		(effects (font (size 1 1) (thickness 0.15)))
	)
	(fp_text value SOT-223-4_L6.5-W3.5-P2.30-LS7.0-BR (at 0 6.3) (layer F.Fab)
		(effects (font (size 1 1) (thickness 0.15)))
	)
	(fp_text user %R (at 0 0) (layer F.Fab)
		(effects (font (size 1 1) (thickness 0.15)))
	)
	(fp_line (start -1.37 3.33) (end -1.37 -3.33) (layer F.SilkS) (width 0.15))
	(fp_line (start -1.37 -3.33) (end 1.37 -3.33) (layer F.SilkS) (width 0.15))
	(fp_line (start 1.37 -3.33) (end 1.37 3.33) (layer F.SilkS) (width 0.15))
	(fp_line (start 1.37 3.33) (end -1.37 3.33) (layer F.SilkS) (width 0.15))
	(pad 1 smd rect (at 2.83 2.30 0.00) (size 2.47 0.98) (layers F.Cu F.Paste F.Mask))
	(pad 2 smd rect (at 2.83 0.00 0.00) (size 2.47 0.98) (layers F.Cu F.Paste F.Mask))
	(pad 3 smd rect (at 2.83 -2.30 0.00) (size 2.47 0.98) (layers F.Cu F.Paste F.Mask))
	(pad 4 smd rect (at -2.83 0.00 0.00) (size 2.47 3.60) (layers F.Cu F.Paste F.Mask))
	(fp_circle (center 3.50 3.25) (end 3.53 3.25) (layer F.Fab) (width 0.06))
	(fp_circle (center 3.56 2.41) (end 3.81 2.41) (layer Cmts.User) (width 0.50))
	(model "/home/dijkstra/Documents/Kicad/easyeda2kicad/easyeda2kicad.3dshapes/SOT-223-4P_L6.5-W3.5-H1.6-LS7.0-P2.30.wrl"
		(offset (xyz 0.000 0.000 0.000))
		(scale (xyz 1 1 1))
		(rotate (xyz 0 0 180))
	)
)