(module easyeda2kicad:SW-TH_EC11XXXXXXXX (layer F.Cu) (tedit 5DC5F6A4)
	(fp_text reference REF** (at 0 -11.25) (layer F.SilkS)
		(effects (font (size 1 1) (thickness 0.15)))
	)
	(fp_text value SW-TH_EC11XXXXXXXX (at 0 11.25) (layer F.Fab)
		(effects (font (size 1 1) (thickness 0.15)))
	)
	(fp_text user %R (at 0 0) (layer F.Fab)
		(effects (font (size 1 1) (thickness 0.15)))
	)
	(fp_line (start -5.90 -6.25) (end -5.90 -2.42) (layer F.SilkS) (width 0.25))
	(fp_line (start 5.90 -2.42) (end 5.90 -6.25) (layer F.SilkS) (width 0.25))
	(fp_line (start 5.90 5.75) (end -5.90 5.75) (layer F.SilkS) (width 0.25))
	(fp_line (start -5.90 -6.25) (end -3.07 -6.25) (layer F.SilkS) (width 0.25))
	(fp_line (start -2.79 -1.27) (end 2.79 -1.27) (layer F.SilkS) (width 0.25))
	(fp_line (start -5.90 -6.25) (end -5.90 -2.42) (layer F.SilkS) (width 0.25))
	(fp_line (start -5.90 1.92) (end -5.90 5.75) (layer F.SilkS) (width 0.25))
	(fp_line (start 5.90 5.75) (end 5.90 1.92) (layer F.SilkS) (width 0.25))
	(fp_line (start 4.79 -2.28) (end 3.98 -2.28) (layer F.SilkS) (width 0.25))
	(fp_line (start 4.79 1.78) (end 3.98 1.78) (layer F.SilkS) (width 0.25))
	(fp_line (start -5.90 1.92) (end -5.90 5.75) (layer F.SilkS) (width 0.25))
	(fp_line (start -4.05 -2.28) (end -4.79 -2.28) (layer F.SilkS) (width 0.25))
	(fp_line (start -4.79 1.78) (end -3.81 1.78) (layer F.SilkS) (width 0.25))
	(fp_line (start -2.01 -6.25) (end 2.01 -6.25) (layer F.SilkS) (width 0.25))
	(fp_line (start 3.07 -6.25) (end 5.90 -6.25) (layer F.SilkS) (width 0.25))
	(pad A thru_hole circle (at -2.54 7.25 0.00) (size 1.80 1.80) (layers *.Cu *.Paste *.Mask)(drill 1.3000228))
	(pad C thru_hole circle (at -0.00 7.25 0.00) (size 1.80 1.80) (layers *.Cu *.Paste *.Mask)(drill 1.3000228))
	(pad B thru_hole circle (at 2.54 7.25 0.00) (size 1.80 1.80) (layers *.Cu *.Paste *.Mask)(drill 1.3000228))
	(pad D thru_hole circle (at -2.54 -7.25 0.00) (size 1.80 1.80) (layers *.Cu *.Paste *.Mask)(drill 1.3000228))
	(pad E thru_hole circle (at 2.54 -7.25 0.00) (size 1.80 1.80) (layers *.Cu *.Paste *.Mask)(drill 1.3000228))
	(pad 6 thru_hole oval (at 5.50 -0.25 90.00) (size 4.00 2.30) (layers *.Cu *.Paste *.Mask)(drill oval 2.999994 1.5000224))
	(pad 7 thru_hole oval (at -5.50 -0.25 90.00) (size 4.00 2.30) (layers *.Cu *.Paste *.Mask)(drill oval 2.999994 1.5000224))
	(fp_circle (center -0.00 -0.25) (end 4.33 -0.25) (layer F.SilkS) (width 0.25))
	(fp_circle (center -0.00 -0.25) (end 3.35 -0.25) (layer F.SilkS) (width 0.25))
	(fp_circle (center -0.00 -0.25) (end 3.05 -0.25) (layer F.SilkS) (width 0.25))
	(fp_circle (center -2.54 7.25) (end -2.26 7.25) (layer F.Fab) (width 0.55))
	(fp_circle (center -0.00 7.25) (end 0.28 7.25) (layer F.Fab) (width 0.55))
	(fp_circle (center 2.54 7.25) (end 2.82 7.25) (layer F.Fab) (width 0.55))
	(fp_circle (center -2.54 -7.25) (end -2.26 -7.25) (layer F.Fab) (width 0.55))
	(fp_circle (center 2.54 -7.25) (end 2.82 -7.25) (layer F.Fab) (width 0.55))
	(fp_circle (center 6.65 -8.15) (end 6.68 -8.15) (layer F.Fab) (width 0.06))
	(fp_arc (start -0.00 -0.27) (end -1.78 -1.27) (angle -238.49) (layer F.SilkS) (width 0.25))
	(model "/home/dijkstra/Documents/Kicad/easyeda2kicad/easyeda2kicad.3dshapes/SW-TH_EC11XXXXXXXX-L11.7-W12.0-H24.5-P2.5-LS14.5.wrl"
		(offset (xyz 0.000 0.000 0.000))
		(scale (xyz 1 1 1))
		(rotate (xyz 0 0 0))
	)
)