(footprint "USB-C-SMD_TYPE-C-USB-4" (version 20211014) (generator pcbnew)
  (layer "F.Cu")
  (tedit 0)
  (descr "C168688")
  (attr through_hole)
  (fp_text reference "REF**" (at 0 -6.39) (layer "F.SilkS")
    (effects (font (size 1 1) (thickness 0.15)))
    (tstamp b0fecb09-08a3-46c6-95f8-59586b808ed8)
  )
  (fp_text value "USB-C-SMD_TYPE-C-USB-4" (at 0 6.39) (layer "F.Fab")
    (effects (font (size 1 1) (thickness 0.15)))
    (tstamp 3d6a71ff-cf04-4b4e-90fb-9eea8990a7a5)
  )
  (fp_text user "${REFERENCE}" (at 0 0) (layer "F.Fab")
    (effects (font (size 1 1) (thickness 0.15)))
    (tstamp 0914ab10-d86a-4e60-8b1e-7e33e58ddfe0)
  )
  (fp_line (start -2.91 -1.14) (end -1.16 -1.14) (layer "F.SilkS") (width 0.25) (tstamp 10ae7f27-772d-4977-b4d9-7ae4ded1228c))
  (fp_line (start 1.34 -1.14) (end 1.34 -1.58) (layer "F.SilkS") (width 0.25) (tstamp 19552b73-6641-42f7-98f2-8e68bf70ba56))
  (fp_line (start -3.74 -1.99) (end -4.5 -1.99) (layer "F.SilkS") (width 0.25) (tstamp 5238bc45-dd1c-4156-8851-1aa20eb5e2a1))
  (fp_line (start 3.8 -1.99) (end 3.74 -1.99) (layer "F.SilkS") (width 0.25) (tstamp 63b9fe3b-c637-4c5b-8af6-d9e81d6ecd08))
  (fp_line (start -1.16 -1.14) (end -1.16 -1.58) (layer "F.SilkS") (width 0.25) (tstamp 758ccb76-6bb3-40e5-bd6c-af3bd12054ae))
  (fp_line (start 4.45 4.51) (end 4.5 4.51) (layer "F.SilkS") (width 0.25) (tstamp ad0089bc-f83a-4cc9-8aa2-7cb0354885a7))
  (fp_line (start -4.5 4.51) (end 4.45 4.51) (layer "F.SilkS") (width 0.25) (tstamp bad24fac-61c4-467e-a995-f7bdcfc273c1))
  (fp_line (start -4.5 -1.99) (end -4.5 4.51) (layer "F.SilkS") (width 0.25) (tstamp c69b494d-3ccb-40ab-93cb-8813cd91586b))
  (fp_line (start 4.5 4.51) (end 4.5 -1.99) (layer "F.SilkS") (width 0.25) (tstamp cf7ae55d-d59a-469c-b13d-fb87b9ae5f69))
  (fp_line (start 4.51 -1.99) (end 3.8 -1.99) (layer "F.SilkS") (width 0.25) (tstamp db4832f1-bb89-4ddd-af57-0fca5e8d1261))
  (fp_line (start 3.09 -1.14) (end 1.34 -1.14) (layer "F.SilkS") (width 0.25) (tstamp de3fd0cb-84e0-423e-9e17-bf28b57686b8))
  (fp_line (start 3.09 -1.14) (end 3.09 -1.58) (layer "F.SilkS") (width 0.25) (tstamp e98512f8-85df-43ef-9af8-b2a446f66a6b))
  (fp_line (start -2.91 -1.14) (end -2.91 -1.58) (layer "F.SilkS") (width 0.25) (tstamp f727643f-6133-4963-8ec5-eea8b8914bb0))
  (fp_circle (center 3.2 -2.35) (end 3.35 -2.35) (layer "Cmts.User") (width 0.3) (fill none) (tstamp 8df7123d-6b8c-43d3-bab6-63bdf3940053))
  (fp_line (start 4.5 4.51) (end 4.5 -1.78) (layer "F.Fab") (width 0.25) (tstamp 99d33e99-22eb-44a6-989f-56faf1bf179e))
  (fp_line (start 4.5 -1.78) (end -4.5 -1.78) (layer "F.Fab") (width 0.25) (tstamp cbfc5cfe-8391-44f7-9cc8-6e1418ef24ad))
  (fp_line (start -4.5 -1.78) (end -4.5 4.51) (layer "F.Fab") (width 0.25) (tstamp fec30f06-b79a-4cbd-8f9d-24d5dc1ae775))
  (fp_circle (center 5.73 -2.71) (end 5.76 -2.71) (layer "F.Fab") (width 0.06) (fill none) (tstamp 6600e212-2a4f-455a-b6c8-ff91ca8361d8))
  (pad "A1" smd rect (at -3.21 -2.39 180) (size 0.6 1.15) (layers "F.Cu" "F.Paste" "F.Mask") (tstamp 85c1848b-ad32-4339-9674-72c81d4dbc8a))
  (pad "A4" smd rect (at -2.41 -2.39 180) (size 0.6 1.15) (layers "F.Cu" "F.Paste" "F.Mask") (tstamp 7ddb0629-def7-4798-8950-bcc65a0fc385))
  (pad "A5" smd rect (at -1.25 -2.39) (size 0.3 1.15) (layers "F.Cu" "F.Paste" "F.Mask") (tstamp 080f996a-2edd-4411-9a65-822033151116))
  (pad "A6" smd rect (at -0.25 -2.39) (size 0.3 1.15) (layers "F.Cu" "F.Paste" "F.Mask") (tstamp e7d678bb-693f-4e9c-b3f0-2ddcbf9dcb2f))
  (pad "A7" smd rect (at 0.25 -2.39) (size 0.3 1.15) (layers "F.Cu" "F.Paste" "F.Mask") (tstamp fec92ef7-a971-4e0b-bd2d-33e90db102bd))
  (pad "A8" smd rect (at 1.25 -2.39) (size 0.3 1.15) (layers "F.Cu" "F.Paste" "F.Mask") (tstamp fffe395d-2d56-45d2-9c27-e0151c0e6275))
  (pad "A9" smd rect (at 2.41 -2.39) (size 0.6 1.15) (layers "F.Cu" "F.Paste" "F.Mask") (tstamp 82621598-eb47-4b0d-b21e-6fc91b925460))
  (pad "A12" smd rect (at 3.21 -2.39) (size 0.6 1.15) (layers "F.Cu" "F.Paste" "F.Mask") (tstamp 1019f14f-a625-488c-8f9e-79cdad12ac8a))
  (pad "B1" smd rect (at 3.21 -2.39) (size 0.6 1.15) (layers "F.Cu" "F.Paste" "F.Mask") (tstamp 137bc78a-de7d-4970-b85a-799136e0c7aa))
  (pad "B4" smd rect (at 2.41 -2.39) (size 0.6 1.15) (layers "F.Cu" "F.Paste" "F.Mask") (tstamp 1f286f7b-5ef5-4937-affc-41eec17444ba))
  (pad "B5" smd rect (at 1.75 -2.39) (size 0.3 1.15) (layers "F.Cu" "F.Paste" "F.Mask") (tstamp 0bec6517-fc05-4ad9-947f-eebfad89268c))
  (pad "B6" smd rect (at 0.75 -2.39) (size 0.3 1.15) (layers "F.Cu" "F.Paste" "F.Mask") (tstamp 7aeb1329-32d6-4700-a91a-68677a063efd))
  (pad "B7" smd rect (at -0.75 -2.39) (size 0.3 1.15) (layers "F.Cu" "F.Paste" "F.Mask") (tstamp 97dc31ae-4a94-4522-bdea-5550637c0ef8))
  (pad "B8" smd rect (at -1.75 -2.39) (size 0.3 1.15) (layers "F.Cu" "F.Paste" "F.Mask") (tstamp 6b165324-aba9-4b10-b0ec-16e7471b862b))
  (pad "B9" smd rect (at -2.41 -2.39 180) (size 0.6 1.15) (layers "F.Cu" "F.Paste" "F.Mask") (tstamp 2cf9f53c-1386-4d6d-b46e-b7e1cd87d6bc))
  (pad "B12" smd rect (at -3.21 -2.39 180) (size 0.6 1.15) (layers "F.Cu" "F.Paste" "F.Mask") (tstamp d3fe2d02-f12c-44f6-a03d-87064d076224))
  (pad "S1" thru_hole oval (at -5.58 -1.61) (size 1.2 2) (drill oval 0.649986 1.399997) (layers *.Cu *.Paste *.Mask) (tstamp 09268438-b06d-451c-9b9c-b8ccca4417ef))
  (pad "S1" thru_hole oval (at -5.58 2.39) (size 1.2 2.4) (drill oval 0.649986 1.700022) (layers *.Cu *.Paste *.Mask) (tstamp 27c02fc1-9e32-42a3-8454-9dc580f3887f))
  (pad "S1" thru_hole oval (at 5.58 -1.61) (size 1.2 2) (drill oval 0.649986 1.399997) (layers *.Cu *.Paste *.Mask) (tstamp 8d97ee24-d8d9-40f9-a8bb-06b8734a9139))
  (pad "S1" thru_hole oval (at 5.58 2.39) (size 1.2 2.4) (drill oval 0.649986 1.700022) (layers *.Cu *.Paste *.Mask) (tstamp ac5bc834-8a12-4a3b-be7a-3d8a009f2e2f))
  (model "${KIPRJMOD}/3dmodels/USB-C-SMD_12P-W8.9-W6.5-H3.2.wrl"
    (offset (xyz 0 -2.5 -1.6))
    (scale (xyz 1 1 1))
    (rotate (xyz 0 0 180))
  )
)
