%FSLAX45Y45*%
G04 Gerber Fmt 4.5, Leading zero omitted, Abs format (unit mm)*
G04 Created by KiCad (PCBNEW (6.0.5)) date 2022-06-26 21:28:53*
%MOMM*%
%LPD*%
G01*
G04 APERTURE LIST*
%TA.AperFunction,Profile*%
%ADD10C,0.100000*%
%TD*%
%ADD11C,0.200000*%
%ADD12C,0.320000*%
G04 APERTURE END LIST*
D10*
X24000000Y-3800000D02*
X24000000Y-13800000D01*
X24000000Y-13800000D02*
X14000000Y-13800000D01*
X14000000Y-13800000D02*
X14000000Y-3800000D01*
X19450000Y-3800000D02*
X19450000Y-4430000D01*
X18550000Y-3800000D02*
X14000000Y-3800000D01*
X19450000Y-3800000D02*
X24000000Y-3800000D01*
X19450000Y-4430000D02*
X18550000Y-4430000D01*
X18550000Y-4430000D02*
X18550000Y-3800000D01*
D11*
D12*
X14190000Y-3990000D02*
X14510000Y-4310000D01*
X14510000Y-3990000D02*
X14190000Y-4310000D01*
X14190000Y-13290000D02*
X14510000Y-13610000D01*
X14510000Y-13290000D02*
X14190000Y-13610000D01*
X23490000Y-3990000D02*
X23810000Y-4310000D01*
X23810000Y-3990000D02*
X23490000Y-4310000D01*
X23490000Y-13290000D02*
X23810000Y-13610000D01*
X23810000Y-13290000D02*
X23490000Y-13610000D01*
D11*
X14252619Y-14115476D02*
X14252619Y-13915476D01*
X14300238Y-13915476D01*
X14328809Y-13925000D01*
X14347857Y-13944048D01*
X14357381Y-13963095D01*
X14366905Y-14001190D01*
X14366905Y-14029762D01*
X14357381Y-14067857D01*
X14347857Y-14086905D01*
X14328809Y-14105952D01*
X14300238Y-14115476D01*
X14252619Y-14115476D01*
X14452619Y-14115476D02*
X14452619Y-13982143D01*
X14452619Y-14020238D02*
X14462143Y-14001190D01*
X14471667Y-13991667D01*
X14490714Y-13982143D01*
X14509762Y-13982143D01*
X14576428Y-14115476D02*
X14576428Y-13982143D01*
X14576428Y-13915476D02*
X14566905Y-13925000D01*
X14576428Y-13934524D01*
X14585952Y-13925000D01*
X14576428Y-13915476D01*
X14576428Y-13934524D01*
X14700238Y-14115476D02*
X14681190Y-14105952D01*
X14671667Y-14086905D01*
X14671667Y-13915476D01*
X14805000Y-14115476D02*
X14785952Y-14105952D01*
X14776428Y-14086905D01*
X14776428Y-13915476D01*
X15033571Y-14115476D02*
X15033571Y-13915476D01*
X15100238Y-14058333D01*
X15166905Y-13915476D01*
X15166905Y-14115476D01*
X15347857Y-14115476D02*
X15347857Y-14010714D01*
X15338333Y-13991667D01*
X15319286Y-13982143D01*
X15281190Y-13982143D01*
X15262143Y-13991667D01*
X15347857Y-14105952D02*
X15328809Y-14115476D01*
X15281190Y-14115476D01*
X15262143Y-14105952D01*
X15252619Y-14086905D01*
X15252619Y-14067857D01*
X15262143Y-14048809D01*
X15281190Y-14039286D01*
X15328809Y-14039286D01*
X15347857Y-14029762D01*
X15443095Y-13982143D02*
X15443095Y-14182143D01*
X15443095Y-13991667D02*
X15462143Y-13982143D01*
X15500238Y-13982143D01*
X15519286Y-13991667D01*
X15528809Y-14001190D01*
X15538333Y-14020238D01*
X15538333Y-14077381D01*
X15528809Y-14096428D01*
X15519286Y-14105952D01*
X15500238Y-14115476D01*
X15462143Y-14115476D01*
X15443095Y-14105952D01*
X15624048Y-14096428D02*
X15633571Y-14105952D01*
X15624048Y-14115476D01*
X15614524Y-14105952D01*
X15624048Y-14096428D01*
X15624048Y-14115476D01*
X15624048Y-13991667D02*
X15633571Y-14001190D01*
X15624048Y-14010714D01*
X15614524Y-14001190D01*
X15624048Y-13991667D01*
X15624048Y-14010714D01*
X13795000Y-14345000D02*
X13995000Y-14545000D01*
X13995000Y-14345000D02*
X13795000Y-14545000D01*
X14233571Y-14335476D02*
X14357381Y-14335476D01*
X14290714Y-14411667D01*
X14319286Y-14411667D01*
X14338333Y-14421190D01*
X14347857Y-14430714D01*
X14357381Y-14449762D01*
X14357381Y-14497381D01*
X14347857Y-14516428D01*
X14338333Y-14525952D01*
X14319286Y-14535476D01*
X14262143Y-14535476D01*
X14243095Y-14525952D01*
X14233571Y-14516428D01*
X14443095Y-14516428D02*
X14452619Y-14525952D01*
X14443095Y-14535476D01*
X14433571Y-14525952D01*
X14443095Y-14516428D01*
X14443095Y-14535476D01*
X14528809Y-14354524D02*
X14538333Y-14345000D01*
X14557381Y-14335476D01*
X14605000Y-14335476D01*
X14624048Y-14345000D01*
X14633571Y-14354524D01*
X14643095Y-14373571D01*
X14643095Y-14392619D01*
X14633571Y-14421190D01*
X14519286Y-14535476D01*
X14643095Y-14535476D01*
X14766905Y-14335476D02*
X14785952Y-14335476D01*
X14805000Y-14345000D01*
X14814524Y-14354524D01*
X14824048Y-14373571D01*
X14833571Y-14411667D01*
X14833571Y-14459286D01*
X14824048Y-14497381D01*
X14814524Y-14516428D01*
X14805000Y-14525952D01*
X14785952Y-14535476D01*
X14766905Y-14535476D01*
X14747857Y-14525952D01*
X14738333Y-14516428D01*
X14728809Y-14497381D01*
X14719286Y-14459286D01*
X14719286Y-14411667D01*
X14728809Y-14373571D01*
X14738333Y-14354524D01*
X14747857Y-14345000D01*
X14766905Y-14335476D01*
X14957381Y-14335476D02*
X14976428Y-14335476D01*
X14995476Y-14345000D01*
X15005000Y-14354524D01*
X15014524Y-14373571D01*
X15024048Y-14411667D01*
X15024048Y-14459286D01*
X15014524Y-14497381D01*
X15005000Y-14516428D01*
X14995476Y-14525952D01*
X14976428Y-14535476D01*
X14957381Y-14535476D01*
X14938333Y-14525952D01*
X14928809Y-14516428D01*
X14919286Y-14497381D01*
X14909762Y-14459286D01*
X14909762Y-14411667D01*
X14919286Y-14373571D01*
X14928809Y-14354524D01*
X14938333Y-14345000D01*
X14957381Y-14335476D01*
X15109762Y-14535476D02*
X15109762Y-14402143D01*
X15109762Y-14421190D02*
X15119286Y-14411667D01*
X15138333Y-14402143D01*
X15166905Y-14402143D01*
X15185952Y-14411667D01*
X15195476Y-14430714D01*
X15195476Y-14535476D01*
X15195476Y-14430714D02*
X15205000Y-14411667D01*
X15224048Y-14402143D01*
X15252619Y-14402143D01*
X15271667Y-14411667D01*
X15281190Y-14430714D01*
X15281190Y-14535476D01*
X15376428Y-14535476D02*
X15376428Y-14402143D01*
X15376428Y-14421190D02*
X15385952Y-14411667D01*
X15405000Y-14402143D01*
X15433571Y-14402143D01*
X15452619Y-14411667D01*
X15462143Y-14430714D01*
X15462143Y-14535476D01*
X15462143Y-14430714D02*
X15471667Y-14411667D01*
X15490714Y-14402143D01*
X15519286Y-14402143D01*
X15538333Y-14411667D01*
X15547857Y-14430714D01*
X15547857Y-14535476D01*
X15938333Y-14325952D02*
X15766905Y-14583095D01*
X16195476Y-14335476D02*
X16214524Y-14335476D01*
X16233571Y-14345000D01*
X16243095Y-14354524D01*
X16252619Y-14373571D01*
X16262143Y-14411667D01*
X16262143Y-14459286D01*
X16252619Y-14497381D01*
X16243095Y-14516428D01*
X16233571Y-14525952D01*
X16214524Y-14535476D01*
X16195476Y-14535476D01*
X16176428Y-14525952D01*
X16166905Y-14516428D01*
X16157381Y-14497381D01*
X16147857Y-14459286D01*
X16147857Y-14411667D01*
X16157381Y-14373571D01*
X16166905Y-14354524D01*
X16176428Y-14345000D01*
X16195476Y-14335476D01*
X16347857Y-14516428D02*
X16357381Y-14525952D01*
X16347857Y-14535476D01*
X16338333Y-14525952D01*
X16347857Y-14516428D01*
X16347857Y-14535476D01*
X16547857Y-14535476D02*
X16433571Y-14535476D01*
X16490714Y-14535476D02*
X16490714Y-14335476D01*
X16471667Y-14364048D01*
X16452619Y-14383095D01*
X16433571Y-14392619D01*
X16624048Y-14354524D02*
X16633571Y-14345000D01*
X16652619Y-14335476D01*
X16700238Y-14335476D01*
X16719286Y-14345000D01*
X16728809Y-14354524D01*
X16738333Y-14373571D01*
X16738333Y-14392619D01*
X16728809Y-14421190D01*
X16614524Y-14535476D01*
X16738333Y-14535476D01*
X16909762Y-14335476D02*
X16871667Y-14335476D01*
X16852619Y-14345000D01*
X16843095Y-14354524D01*
X16824048Y-14383095D01*
X16814524Y-14421190D01*
X16814524Y-14497381D01*
X16824048Y-14516428D01*
X16833571Y-14525952D01*
X16852619Y-14535476D01*
X16890714Y-14535476D01*
X16909762Y-14525952D01*
X16919286Y-14516428D01*
X16928810Y-14497381D01*
X16928810Y-14449762D01*
X16919286Y-14430714D01*
X16909762Y-14421190D01*
X16890714Y-14411667D01*
X16852619Y-14411667D01*
X16833571Y-14421190D01*
X16824048Y-14430714D01*
X16814524Y-14449762D01*
X17052619Y-14335476D02*
X17071667Y-14335476D01*
X17090714Y-14345000D01*
X17100238Y-14354524D01*
X17109762Y-14373571D01*
X17119286Y-14411667D01*
X17119286Y-14459286D01*
X17109762Y-14497381D01*
X17100238Y-14516428D01*
X17090714Y-14525952D01*
X17071667Y-14535476D01*
X17052619Y-14535476D01*
X17033571Y-14525952D01*
X17024048Y-14516428D01*
X17014524Y-14497381D01*
X17005000Y-14459286D01*
X17005000Y-14411667D01*
X17014524Y-14373571D01*
X17024048Y-14354524D01*
X17033571Y-14345000D01*
X17052619Y-14335476D01*
X17195476Y-14335476D02*
X17195476Y-14373571D01*
X17271667Y-14335476D02*
X17271667Y-14373571D01*
X17566905Y-14611667D02*
X17557381Y-14602143D01*
X17538333Y-14573571D01*
X17528810Y-14554524D01*
X17519286Y-14525952D01*
X17509762Y-14478333D01*
X17509762Y-14440238D01*
X17519286Y-14392619D01*
X17528810Y-14364048D01*
X17538333Y-14345000D01*
X17557381Y-14316428D01*
X17566905Y-14306905D01*
X17728810Y-14402143D02*
X17728810Y-14535476D01*
X17681190Y-14325952D02*
X17633571Y-14468809D01*
X17757381Y-14468809D01*
X17985952Y-14535476D02*
X17985952Y-14335476D01*
X18071667Y-14535476D02*
X18071667Y-14430714D01*
X18062143Y-14411667D01*
X18043095Y-14402143D01*
X18014524Y-14402143D01*
X17995476Y-14411667D01*
X17985952Y-14421190D01*
X18195476Y-14535476D02*
X18176429Y-14525952D01*
X18166905Y-14516428D01*
X18157381Y-14497381D01*
X18157381Y-14440238D01*
X18166905Y-14421190D01*
X18176429Y-14411667D01*
X18195476Y-14402143D01*
X18224048Y-14402143D01*
X18243095Y-14411667D01*
X18252619Y-14421190D01*
X18262143Y-14440238D01*
X18262143Y-14497381D01*
X18252619Y-14516428D01*
X18243095Y-14525952D01*
X18224048Y-14535476D01*
X18195476Y-14535476D01*
X18376429Y-14535476D02*
X18357381Y-14525952D01*
X18347857Y-14506905D01*
X18347857Y-14335476D01*
X18528810Y-14525952D02*
X18509762Y-14535476D01*
X18471667Y-14535476D01*
X18452619Y-14525952D01*
X18443095Y-14506905D01*
X18443095Y-14430714D01*
X18452619Y-14411667D01*
X18471667Y-14402143D01*
X18509762Y-14402143D01*
X18528810Y-14411667D01*
X18538333Y-14430714D01*
X18538333Y-14449762D01*
X18443095Y-14468809D01*
X18614524Y-14525952D02*
X18633571Y-14535476D01*
X18671667Y-14535476D01*
X18690714Y-14525952D01*
X18700238Y-14506905D01*
X18700238Y-14497381D01*
X18690714Y-14478333D01*
X18671667Y-14468809D01*
X18643095Y-14468809D01*
X18624048Y-14459286D01*
X18614524Y-14440238D01*
X18614524Y-14430714D01*
X18624048Y-14411667D01*
X18643095Y-14402143D01*
X18671667Y-14402143D01*
X18690714Y-14411667D01*
X18766905Y-14611667D02*
X18776429Y-14602143D01*
X18795476Y-14573571D01*
X18805000Y-14554524D01*
X18814524Y-14525952D01*
X18824048Y-14478333D01*
X18824048Y-14440238D01*
X18814524Y-14392619D01*
X18805000Y-14364048D01*
X18795476Y-14345000D01*
X18776429Y-14316428D01*
X18766905Y-14306905D01*
X19128810Y-14611667D02*
X19119286Y-14602143D01*
X19100238Y-14573571D01*
X19090714Y-14554524D01*
X19081190Y-14525952D01*
X19071667Y-14478333D01*
X19071667Y-14440238D01*
X19081190Y-14392619D01*
X19090714Y-14364048D01*
X19100238Y-14345000D01*
X19119286Y-14316428D01*
X19128810Y-14306905D01*
X19205000Y-14402143D02*
X19205000Y-14535476D01*
X19205000Y-14421190D02*
X19214524Y-14411667D01*
X19233571Y-14402143D01*
X19262143Y-14402143D01*
X19281190Y-14411667D01*
X19290714Y-14430714D01*
X19290714Y-14535476D01*
X19414524Y-14535476D02*
X19395476Y-14525952D01*
X19385952Y-14516428D01*
X19376429Y-14497381D01*
X19376429Y-14440238D01*
X19385952Y-14421190D01*
X19395476Y-14411667D01*
X19414524Y-14402143D01*
X19443095Y-14402143D01*
X19462143Y-14411667D01*
X19471667Y-14421190D01*
X19481190Y-14440238D01*
X19481190Y-14497381D01*
X19471667Y-14516428D01*
X19462143Y-14525952D01*
X19443095Y-14535476D01*
X19414524Y-14535476D01*
X19538333Y-14402143D02*
X19614524Y-14402143D01*
X19566905Y-14335476D02*
X19566905Y-14506905D01*
X19576429Y-14525952D01*
X19595476Y-14535476D01*
X19614524Y-14535476D01*
X19833571Y-14402143D02*
X19833571Y-14602143D01*
X19833571Y-14411667D02*
X19852619Y-14402143D01*
X19890714Y-14402143D01*
X19909762Y-14411667D01*
X19919286Y-14421190D01*
X19928810Y-14440238D01*
X19928810Y-14497381D01*
X19919286Y-14516428D01*
X19909762Y-14525952D01*
X19890714Y-14535476D01*
X19852619Y-14535476D01*
X19833571Y-14525952D01*
X20043095Y-14535476D02*
X20024048Y-14525952D01*
X20014524Y-14506905D01*
X20014524Y-14335476D01*
X20205000Y-14535476D02*
X20205000Y-14430714D01*
X20195476Y-14411667D01*
X20176429Y-14402143D01*
X20138333Y-14402143D01*
X20119286Y-14411667D01*
X20205000Y-14525952D02*
X20185952Y-14535476D01*
X20138333Y-14535476D01*
X20119286Y-14525952D01*
X20109762Y-14506905D01*
X20109762Y-14487857D01*
X20119286Y-14468809D01*
X20138333Y-14459286D01*
X20185952Y-14459286D01*
X20205000Y-14449762D01*
X20271667Y-14402143D02*
X20347857Y-14402143D01*
X20300238Y-14335476D02*
X20300238Y-14506905D01*
X20309762Y-14525952D01*
X20328810Y-14535476D01*
X20347857Y-14535476D01*
X20490714Y-14525952D02*
X20471667Y-14535476D01*
X20433571Y-14535476D01*
X20414524Y-14525952D01*
X20405000Y-14506905D01*
X20405000Y-14430714D01*
X20414524Y-14411667D01*
X20433571Y-14402143D01*
X20471667Y-14402143D01*
X20490714Y-14411667D01*
X20500238Y-14430714D01*
X20500238Y-14449762D01*
X20405000Y-14468809D01*
X20671667Y-14535476D02*
X20671667Y-14335476D01*
X20671667Y-14525952D02*
X20652619Y-14535476D01*
X20614524Y-14535476D01*
X20595476Y-14525952D01*
X20585952Y-14516428D01*
X20576429Y-14497381D01*
X20576429Y-14440238D01*
X20585952Y-14421190D01*
X20595476Y-14411667D01*
X20614524Y-14402143D01*
X20652619Y-14402143D01*
X20671667Y-14411667D01*
X20747857Y-14611667D02*
X20757381Y-14602143D01*
X20776429Y-14573571D01*
X20785952Y-14554524D01*
X20795476Y-14525952D01*
X20805000Y-14478333D01*
X20805000Y-14440238D01*
X20795476Y-14392619D01*
X20785952Y-14364048D01*
X20776429Y-14345000D01*
X20757381Y-14316428D01*
X20747857Y-14306905D01*
M02*
