(kicad_symbol_lib (version 20211014) (generator kicad_symbol_editor)
  (symbol "ALPS_EC11" (pin_numbers hide) (pin_names (offset 0)) (in_bom yes) (on_board yes)
    (property "Reference" "SW?" (id 0) (at 6.35 7.62 0)
      (effects (font (size 1.27 1.27)))
    )
    (property "Value" "ALPS_EC11" (id 1) (at 10.16 -7.62 0)
      (effects (font (size 1.27 1.27)))
    )
    (property "Footprint" "" (id 2) (at 0 0 0)
      (effects (font (size 1.27 1.27)) hide)
    )
    (property "Datasheet" "https://datasheet.lcsc.com/lcsc/1912111437_ALPSALPINE-EC11E183440C_C370986.pdf" (id 3) (at 0 0 0)
      (effects (font (size 1.27 1.27)) hide)
    )
    (property "LCSC" "C370986" (id 4) (at 0 0 0)
      (effects (font (size 1.27 1.27)) hide)
    )
    (symbol "ALPS_EC11_0_1"
      (rectangle (start -6.35 6.35) (end 6.35 -6.35)
        (stroke (width 0.1524) (type default) (color 0 0 0 0))
        (fill (type background))
      )
      (arc (start -3.81 0) (mid -2.6941 -2.6941) (end 0 -3.81)
        (stroke (width 0.1524) (type default) (color 0 0 0 0))
        (fill (type none))
      )
      (arc (start 0 -3.81) (mid 2.6941 -2.6941) (end 3.81 0)
        (stroke (width 0.1524) (type default) (color 0 0 0 0))
        (fill (type none))
      )
      (polyline
        (pts
          (xy -3.81 0)
          (xy -3.81 -1.27)
        )
        (stroke (width 0.1524) (type default) (color 0 0 0 0))
        (fill (type none))
      )
      (polyline
        (pts
          (xy 1.27 1.27)
          (xy -1.27 1.27)
        )
        (stroke (width 0.1524) (type default) (color 0 0 0 0))
        (fill (type none))
      )
      (polyline
        (pts
          (xy 3.81 0)
          (xy 3.81 -1.27)
        )
        (stroke (width 0.1524) (type default) (color 0 0 0 0))
        (fill (type none))
      )
      (circle (center 0 0) (radius 1.7961)
        (stroke (width 0.1524) (type default) (color 0 0 0 0))
        (fill (type none))
      )
      (circle (center 0 0) (radius 4.5791)
        (stroke (width 0.1524) (type default) (color 0 0 0 0))
        (fill (type none))
      )
    )
    (symbol "ALPS_EC11_1_1"
      (pin input line (at -3.81 -11.43 90) (length 5.08)
        (name "A" (effects (font (size 1.27 1.27))))
        (number "A" (effects (font (size 1.27 1.27))))
      )
      (pin input line (at 3.81 -11.43 90) (length 5.08)
        (name "B" (effects (font (size 1.27 1.27))))
        (number "B" (effects (font (size 1.27 1.27))))
      )
      (pin output line (at 0 -11.43 90) (length 5.08)
        (name "C" (effects (font (size 1.27 1.27))))
        (number "C" (effects (font (size 1.27 1.27))))
      )
      (pin input line (at -3.81 11.43 270) (length 5.08)
        (name "D" (effects (font (size 1.27 1.27))))
        (number "D" (effects (font (size 1.27 1.27))))
      )
      (pin output line (at 3.81 11.43 270) (length 5.08)
        (name "E" (effects (font (size 1.27 1.27))))
        (number "E" (effects (font (size 1.27 1.27))))
      )
    )
  )
)
