(kicad_symbol_lib (version 20211014) (generator kicad_symbol_editor)
  (symbol "SRV0504" (pin_names hide) (in_bom yes) (on_board yes)
    (property "Reference" "U" (id 0) (at -4.445 12.7 0)
      (effects (font (size 1.27 1.27)))
    )
    (property "Value" "SRV0504" (id 1) (at 5.08 -5.715 0)
      (effects (font (size 1.25 1.25)))
    )
    (property "Footprint" "footprints:SOT-23-6_L2.9-W1.6-P0.95-LS2.8-BL" (id 2) (at 1.27 0 0)
      (effects (font (size 1.27 1.27)) hide)
    )
    (property "Datasheet" "https://datasheet.lcsc.com/lcsc/1912111437_Leiditech-SRV0504_C384888.pdf" (id 3) (at 1.27 0 0)
      (effects (font (size 1.27 1.27)) hide)
    )
    (property "LCSC" "C384888" (id 4) (at 0 0 0)
      (effects (font (size 1.27 1.27)))
    )
    (symbol "SRV0504_0_1"
      (rectangle (start -5.08 10.668) (end 5.08 -4.445)
        (stroke (width 0.1524) (type default) (color 0 0 0 0))
        (fill (type background))
      )
      (circle (center -3.81 5.08) (radius 0.1136)
        (stroke (width 0.1524) (type default) (color 0 0 0 0))
        (fill (type none))
      )
      (circle (center -1.905 -3.175) (radius 0.1136)
        (stroke (width 0.1524) (type default) (color 0 0 0 0))
        (fill (type none))
      )
      (circle (center -1.905 0) (radius 0.1136)
        (stroke (width 0.1524) (type default) (color 0 0 0 0))
        (fill (type none))
      )
      (circle (center -1.905 7.62) (radius 0.1136)
        (stroke (width 0.1524) (type default) (color 0 0 0 0))
        (fill (type none))
      )
      (circle (center 0 -3.175) (radius 0.1136)
        (stroke (width 0.1524) (type default) (color 0 0 0 0))
        (fill (type none))
      )
      (polyline
        (pts
          (xy -5.08 0)
          (xy -1.905 0)
        )
        (stroke (width 0.1524) (type default) (color 0 0 0 0))
        (fill (type none))
      )
      (polyline
        (pts
          (xy -5.08 5.08)
          (xy -3.81 5.08)
        )
        (stroke (width 0.1524) (type default) (color 0 0 0 0))
        (fill (type none))
      )
      (polyline
        (pts
          (xy -4.445 -1.27)
          (xy -3.175 -1.27)
        )
        (stroke (width 0.1524) (type default) (color 0 0 0 0))
        (fill (type none))
      )
      (polyline
        (pts
          (xy -4.445 6.985)
          (xy -3.175 6.985)
        )
        (stroke (width 0.1524) (type default) (color 0 0 0 0))
        (fill (type none))
      )
      (polyline
        (pts
          (xy -3.81 -1.27)
          (xy -3.81 5.588)
        )
        (stroke (width 0.1524) (type default) (color 0 0 0 0))
        (fill (type none))
      )
      (polyline
        (pts
          (xy -2.54 -1.27)
          (xy -1.27 -1.27)
        )
        (stroke (width 0.1524) (type default) (color 0 0 0 0))
        (fill (type none))
      )
      (polyline
        (pts
          (xy -2.54 6.985)
          (xy -1.27 6.985)
        )
        (stroke (width 0.1524) (type default) (color 0 0 0 0))
        (fill (type none))
      )
      (polyline
        (pts
          (xy -1.905 -1.27)
          (xy -1.905 5.715)
        )
        (stroke (width 0.1524) (type default) (color 0 0 0 0))
        (fill (type none))
      )
      (polyline
        (pts
          (xy -0.635 3.175)
          (xy -0.635 2.54)
        )
        (stroke (width 0.1524) (type default) (color 0 0 0 0))
        (fill (type none))
      )
      (polyline
        (pts
          (xy -0.635 3.175)
          (xy 0.635 3.175)
        )
        (stroke (width 0.1524) (type default) (color 0 0 0 0))
        (fill (type none))
      )
      (polyline
        (pts
          (xy 0 1.905)
          (xy 0 -3.175)
        )
        (stroke (width 0.1524) (type default) (color 0 0 0 0))
        (fill (type none))
      )
      (polyline
        (pts
          (xy 0 7.62)
          (xy 0 3.175)
        )
        (stroke (width 0.1524) (type default) (color 0 0 0 0))
        (fill (type none))
      )
      (polyline
        (pts
          (xy 0 7.62)
          (xy 0 8.255)
        )
        (stroke (width 0.1524) (type default) (color 0 0 0 0))
        (fill (type none))
      )
      (polyline
        (pts
          (xy 0 9.525)
          (xy 0 10.16)
        )
        (stroke (width 0.1524) (type default) (color 0 0 0 0))
        (fill (type none))
      )
      (polyline
        (pts
          (xy 0.635 8.255)
          (xy -0.635 8.255)
        )
        (stroke (width 0.1524) (type default) (color 0 0 0 0))
        (fill (type none))
      )
      (polyline
        (pts
          (xy 1.27 -1.27)
          (xy 2.54 -1.27)
        )
        (stroke (width 0.1524) (type default) (color 0 0 0 0))
        (fill (type none))
      )
      (polyline
        (pts
          (xy 1.27 6.985)
          (xy 2.54 6.985)
        )
        (stroke (width 0.1524) (type default) (color 0 0 0 0))
        (fill (type none))
      )
      (polyline
        (pts
          (xy 1.905 -1.27)
          (xy 1.905 5.715)
        )
        (stroke (width 0.1524) (type default) (color 0 0 0 0))
        (fill (type none))
      )
      (polyline
        (pts
          (xy 3.175 -1.27)
          (xy 4.445 -1.27)
        )
        (stroke (width 0.1524) (type default) (color 0 0 0 0))
        (fill (type none))
      )
      (polyline
        (pts
          (xy 3.175 6.985)
          (xy 4.445 6.985)
        )
        (stroke (width 0.1524) (type default) (color 0 0 0 0))
        (fill (type none))
      )
      (polyline
        (pts
          (xy 3.81 -1.27)
          (xy 3.81 5.715)
        )
        (stroke (width 0.1524) (type default) (color 0 0 0 0))
        (fill (type none))
      )
      (polyline
        (pts
          (xy 5.08 0)
          (xy 1.905 0)
        )
        (stroke (width 0.1524) (type default) (color 0 0 0 0))
        (fill (type none))
      )
      (polyline
        (pts
          (xy 5.08 5.08)
          (xy 3.81 5.08)
        )
        (stroke (width 0.1524) (type default) (color 0 0 0 0))
        (fill (type none))
      )
      (polyline
        (pts
          (xy -1.905 -3.175)
          (xy 1.905 -3.175)
          (xy 1.905 -2.54)
        )
        (stroke (width 0.1524) (type default) (color 0 0 0 0))
        (fill (type none))
      )
      (polyline
        (pts
          (xy -1.905 7.62)
          (xy -3.81 7.62)
          (xy -3.81 6.985)
        )
        (stroke (width 0.1524) (type default) (color 0 0 0 0))
        (fill (type none))
      )
      (polyline
        (pts
          (xy 1.905 -3.175)
          (xy 3.81 -3.175)
          (xy 3.81 -2.54)
        )
        (stroke (width 0.1524) (type default) (color 0 0 0 0))
        (fill (type none))
      )
      (polyline
        (pts
          (xy 1.905 7.62)
          (xy -1.905 7.62)
          (xy -1.905 6.985)
        )
        (stroke (width 0.1524) (type default) (color 0 0 0 0))
        (fill (type none))
      )
      (polyline
        (pts
          (xy -3.81 -2.54)
          (xy -3.81 -3.175)
          (xy -1.905 -3.175)
          (xy -1.905 -2.54)
        )
        (stroke (width 0.1524) (type default) (color 0 0 0 0))
        (fill (type none))
      )
      (polyline
        (pts
          (xy -3.81 -1.27)
          (xy -4.445 -2.54)
          (xy -3.175 -2.54)
          (xy -3.81 -1.27)
        )
        (stroke (width 0.1524) (type default) (color 0 0 0 0))
        (fill (type none))
      )
      (polyline
        (pts
          (xy -3.81 6.985)
          (xy -4.445 5.715)
          (xy -3.175 5.715)
          (xy -3.81 6.985)
        )
        (stroke (width 0.1524) (type default) (color 0 0 0 0))
        (fill (type none))
      )
      (polyline
        (pts
          (xy -1.905 -1.27)
          (xy -2.54 -2.54)
          (xy -1.27 -2.54)
          (xy -1.905 -1.27)
        )
        (stroke (width 0.1524) (type default) (color 0 0 0 0))
        (fill (type none))
      )
      (polyline
        (pts
          (xy -1.905 6.985)
          (xy -2.54 5.715)
          (xy -1.27 5.715)
          (xy -1.905 6.985)
        )
        (stroke (width 0.1524) (type default) (color 0 0 0 0))
        (fill (type none))
      )
      (polyline
        (pts
          (xy 0 3.175)
          (xy -0.635 1.905)
          (xy 0.635 1.905)
          (xy 0 3.175)
        )
        (stroke (width 0.1524) (type default) (color 0 0 0 0))
        (fill (type none))
      )
      (polyline
        (pts
          (xy 0 8.255)
          (xy 0.635 9.525)
          (xy -0.635 9.525)
          (xy 0 8.255)
        )
        (stroke (width 0.1524) (type default) (color 0 0 0 0))
        (fill (type none))
      )
      (polyline
        (pts
          (xy 1.905 -1.27)
          (xy 1.27 -2.54)
          (xy 2.54 -2.54)
          (xy 1.905 -1.27)
        )
        (stroke (width 0.1524) (type default) (color 0 0 0 0))
        (fill (type none))
      )
      (polyline
        (pts
          (xy 1.905 6.985)
          (xy 1.27 5.715)
          (xy 2.54 5.715)
          (xy 1.905 6.985)
        )
        (stroke (width 0.1524) (type default) (color 0 0 0 0))
        (fill (type none))
      )
      (polyline
        (pts
          (xy 3.81 -1.27)
          (xy 3.175 -2.54)
          (xy 4.445 -2.54)
          (xy 3.81 -1.27)
        )
        (stroke (width 0.1524) (type default) (color 0 0 0 0))
        (fill (type none))
      )
      (polyline
        (pts
          (xy 3.81 6.985)
          (xy 3.175 5.715)
          (xy 4.445 5.715)
          (xy 3.81 6.985)
        )
        (stroke (width 0.1524) (type default) (color 0 0 0 0))
        (fill (type none))
      )
      (polyline
        (pts
          (xy 3.81 6.985)
          (xy 3.81 7.62)
          (xy 1.905 7.62)
          (xy 1.905 6.985)
        )
        (stroke (width 0.1524) (type default) (color 0 0 0 0))
        (fill (type none))
      )
      (circle (center 0 7.62) (radius 0.1136)
        (stroke (width 0.1524) (type default) (color 0 0 0 0))
        (fill (type none))
      )
      (circle (center 1.905 -3.175) (radius 0.1136)
        (stroke (width 0.1524) (type default) (color 0 0 0 0))
        (fill (type none))
      )
      (circle (center 1.905 0) (radius 0.1136)
        (stroke (width 0.1524) (type default) (color 0 0 0 0))
        (fill (type none))
      )
      (circle (center 1.905 7.62) (radius 0.1136)
        (stroke (width 0.1524) (type default) (color 0 0 0 0))
        (fill (type none))
      )
      (circle (center 3.81 5.08) (radius 0.1136)
        (stroke (width 0.1524) (type default) (color 0 0 0 0))
        (fill (type none))
      )
    )
    (symbol "SRV0504_1_1"
      (pin power_in line (at -10.16 5.08 0) (length 5.08)
        (name "IO1" (effects (font (size 1.27 1.27))))
        (number "1" (effects (font (size 1.27 1.27))))
      )
      (pin power_out line (at 0 -8.255 90) (length 5.08)
        (name "GND" (effects (font (size 1.27 1.27))))
        (number "2" (effects (font (size 1.27 1.27))))
      )
      (pin power_in line (at -10.16 0 0) (length 5.08)
        (name "IO3" (effects (font (size 1.27 1.27))))
        (number "3" (effects (font (size 1.27 1.27))))
      )
      (pin power_in line (at 10.16 0 180) (length 5.08)
        (name "IO4" (effects (font (size 1.27 1.27))))
        (number "4" (effects (font (size 1.27 1.27))))
      )
      (pin power_out line (at 0 15.24 270) (length 5.08)
        (name "VDD" (effects (font (size 1.27 1.27))))
        (number "5" (effects (font (size 1.27 1.27))))
      )
      (pin power_in line (at 10.16 5.08 180) (length 5.08)
        (name "IO2" (effects (font (size 1.27 1.27))))
        (number "6" (effects (font (size 1.27 1.27))))
      )
    )
  )
)
